Programación avanzada en R
…
<!-- 2- Crea una nueva variable llamada medal_type que valga "Gold", "Silver", "Bronze" según corresponda. -->

---
class: inverse, center, middle
# tidyr::pivot_longer()

---
# Ejemplo: datos no "tidy"

- Es frecuente utilizar datos que no tienen una estructura "tidy". 
- El archivo "uy_wide.csv" contiene los registros de deportistas de Uruguay que han participado en JJOO.

```
# A tibble: 361 × 23
   Name    `1924` `1928` `1932` `1936` `1948` `1952` `1956` `1960` `1964` `1968`
   <chr>    <dbl>  <dbl>  <dbl>  <dbl>  <dbl>  <dbl>  <dbl>  <dbl>  <dbl>  <dbl>
 1 Jos Le…      1     NA     NA     NA     NA     NA     NA     NA     NA     NA
 2 Pedro …      1     NA     NA     NA     NA     NA     NA     NA     NA     NA
 3 Hctor …      1     NA     NA     NA     NA     NA     NA     NA     NA     NA
 4 Jos Pe…      1     NA     NA     NA     NA     NA     NA     NA     NA     NA
 5 Libert…      1     NA     NA     NA     NA     NA     NA     NA     NA     NA
 6 Manuel…      1     NA     NA     NA     NA     NA     NA     NA     NA     NA
 7 L. A. …      1     NA     NA     NA     NA     NA     NA     NA     NA     NA
 8 Santos…      1     NA     NA     NA     NA     NA     NA     NA     NA     NA
 9 Alfred…      1     NA     NA     NA     NA     NA     NA     NA     NA     NA
10 Mario …      1     NA     NA     NA     NA     NA     NA     NA     NA     NA
# … with 351 more rows, and 12 more variables: `1972` <dbl>, `1976` <dbl>,
#   `1984` <dbl>, `1988` <dbl>, `1992` <dbl>, `1996` <dbl>, `1998` <dbl>,
#   `2000` <dbl>, `2004` <dbl>, `2008` <dbl>, `2012` <dbl>, `2016` <dbl>
```
…
